{
  "project_info": {
    "project_number": "927244023884",
    "project_id": "cypopuli",
    "storage_bucket": "cypopuli.appspot.com"
  },
  "client": [
    {
      "client_info": {
        "mobilesdk_app_id": "1:927244023884:android:994d67a730f6058a4b1ce9",
        "android_client_info": {
          "package_name": "com.example.cypopuli"
        }
      },
      "oauth_client": [
        {
          "client_id": "927244023884-j2ipnd8h34pug4rgia19fva4gbd860ie.apps.googleusercontent.com",
          "client_type": 3
        }
      ],
      "api_key": [
        {
          "current_key": "AIzaSyAa0_VZ3a764PtEym_GSl3fymcYvE2g9NU"
        }
      ],
      "services": {
        "appinvite_service": {
          "other_platform_oauth_client": [
            {
              "client_id": "927244023884-j2ipnd8h34pug4rgia19fva4gbd860ie.apps.googleusercontent.com",
              "client_type": 3
            }
          ]
        }
      }
    }
  ],
  "configuration_version": "1"
}